STATE,MILES
Alabama,214.5
Arkansas,"2,134.70"
Arizona,"1,966.30"
California,"3,630.60"
Colorado,680.8
Connecticut,329.3
Delaware,49
Florida,"1,535.40"
Georgia,"2,255.80"
Iowa,302
Illinois,"2,203.00"
Indiana,"3,191.70"
Kansas,"1,024.70"
Kentucky,"1,715.00"
Louisiana,190.7
Massachusetts,264.9
Maryland,684.6
Michigan,103.8
Missouri,"2,280.00"
Mississippi,194.3
North Carolina,666.8
Nebraska,461.1
New Jersey,856.2
New Mexico,"1,455.90"
Nevada,"1,076.90"
New York,"1,244.90"
Ohio,"7,091.00"
Oklahoma,"2,279.70"
Pennsylvania,"4,281.00"
Rhode Island,43.5
South Carolina,778
Tennessee,"2,736.30"
Texas,"3,947.80"
Utah,"1,053.90"
Virginia,"1,812.20"
West Virginia,889.3
Wyoming,782.4