STATE,GALLONS
KY,78.27
TN,100.16
KY,90.13
IL,87.77
AR,80.5
TN,97.99
OH,88.38
KY,90.25
OH,100.5
NY,67.61
OH,79.64
MO,82.22
MO,75.15
KY,71.92
KY,87.61
MO,74.3
AR,77.09
KY,66.72
KY,7.48
OH,80.68
PA,80.55
OH,66.98