{
    "_default": {
        "1": {
            "state_final": "OH",
            "gallons_total": 56
        },
        "2": {
            "state_final": "IN",
            "gallons_total": 451
        },
        "3": {
            "state_final": "KY",
            "gallons_total": 798
        },
        "4": {
            "state_final": "MI",
            "gallons_total": 89
        }
    }
}