{
    "_default": {
        "1": {
            "state": "OH",
            "miles": "10865.423",
            "gallons": 2360
        },
        "2": {
            "state": "IN",
            "miles": "5374.515",
            "gallons": 855
        },
        "3": {
            "state": "NY",
            "miles": "5998.297",
            "gallons": 200
        },
        "4": {
            "state": "KY",
            "miles": "708.345",
            "gallons": 212
        },
        "5": {
            "state": "AR",
            "miles": "257.899",
            "gallons": 79
        },
        "6": {
            "state": "PA",
            "miles": "1791.036",
            "gallons": 297
        },
        "7": {
            "state": "IL",
            "miles": "7034.958",
            "gallons": 418
        },
        "8": {
            "state": "MO",
            "miles": "973.115",
            "gallons": 225
        },
        "9": {
            "state": "TN",
            "miles": "54.358",
            "gallons": "0"
        }
    }
}