"","Please return this portion with your payment.","",""
"Account #:","Previous Balance:","$0.00",""
"163706","Payments Received:","$0.00",""
"HOGA TRANSPORT LLC","","",""
"","Adjustments:","$0.00",""
"5656 PRINCESS PL APT A","","",""
"Columbus, OH 43231","","",""
"","Previous Due:","$0.00","$0.00"
"","Current Charges:","$488.29",""
"","Late Charges:","$0.00",""
"","Discounts:","($23.90)",""
"","Current Activity:","$464.39","$464.39"
"","US Total Due:","","$464.39"
